\relax 
\providecommand\hyper@newdestlabel[2]{}
\providecommand\HyperFirstAtBeginDocument{\AtBeginDocument}
\HyperFirstAtBeginDocument{\ifx\hyper@anchor\@undefined
\global\let\oldcontentsline\contentsline
\gdef\contentsline#1#2#3#4{\oldcontentsline{#1}{#2}{#3}}
\global\let\oldnewlabel\newlabel
\gdef\newlabel#1#2{\newlabelxx{#1}#2}
\gdef\newlabelxx#1#2#3#4#5#6{\oldnewlabel{#1}{{#2}{#3}}}
\AtEndDocument{\ifx\hyper@anchor\@undefined
\let\contentsline\oldcontentsline
\let\newlabel\oldnewlabel
\fi}
\fi}
\global\let\hyper@last\relax 
\gdef\HyperFirstAtBeginDocument#1{#1}
\providecommand\HyField@AuxAddToFields[1]{}
\providecommand\HyField@AuxAddToCoFields[2]{}
\@nameuse{bbl@beforestart}
\babel@aux{italian}{}
\babel@aux{italian}{}
\babel@aux{italian}{}
\@writefile{toc}{\contentsline {section}{\numberline {1}Introduzione}{2}{section.1}\protected@file@percent }
\@writefile{toc}{\contentsline {subsection}{\numberline {1.1}Assunzioni}{2}{subsection.1.1}\protected@file@percent }
\@writefile{toc}{\contentsline {section}{\numberline {2}Architettura dell'applicazione}{3}{section.2}\protected@file@percent }
\@writefile{toc}{\contentsline {subsection}{\numberline {2.1}Architettura Distribuita}{3}{subsection.2.1}\protected@file@percent }
\@writefile{lof}{\contentsline {figure}{\numberline {1}{\ignorespaces Architettura Distribuita}}{3}{figure.1}\protected@file@percent }
\@writefile{toc}{\contentsline {subsection}{\numberline {2.2}Architettura Centralizzata}{3}{subsection.2.2}\protected@file@percent }
\@writefile{lof}{\contentsline {figure}{\numberline {2}{\ignorespaces Architettura Centralizzata}}{3}{figure.2}\protected@file@percent }
\@writefile{toc}{\contentsline {subsection}{\numberline {2.3}Struttura della solution}{4}{subsection.2.3}\protected@file@percent }
\@writefile{toc}{\contentsline {section}{\numberline {3}Mockup e design dell'applicazione}{5}{section.3}\protected@file@percent }
\@writefile{toc}{\contentsline {section}{\numberline {4}Implementazione}{8}{section.4}\protected@file@percent }
\@writefile{toc}{\contentsline {subsection}{\numberline {4.1}OSC01 - Aggiunta di prodotti alla lista dei prodotti selezionati}{8}{subsection.4.1}\protected@file@percent }
\@writefile{toc}{\contentsline {subsubsection}{\numberline {4.1.1}Implementazione tecnologica}{8}{subsubsection.4.1.1}\protected@file@percent }
\@writefile{toc}{\contentsline {subsection}{\numberline {4.2}OSC02 - Generazione scontrino}{9}{subsection.4.2}\protected@file@percent }
\@writefile{toc}{\contentsline {subsection}{\numberline {4.3}OSC04 - Autenticazione}{10}{subsection.4.3}\protected@file@percent }
\@writefile{toc}{\contentsline {subsubsection}{\numberline {4.3.1}Implementazione tecnologica}{10}{subsubsection.4.3.1}\protected@file@percent }
\@writefile{toc}{\contentsline {subsection}{\numberline {4.4}OSC05 - Rimozione di prodotti/menu dalla lista dei prodotti selezionati}{11}{subsection.4.4}\protected@file@percent }
\@writefile{toc}{\contentsline {subsubsection}{\numberline {4.4.1}Implementazione tecnologica}{11}{subsubsection.4.4.1}\protected@file@percent }
\@writefile{toc}{\contentsline {subsection}{\numberline {4.5}OSC06 - Aggiunta di menu alla lista dei prodotti selezionati}{12}{subsection.4.5}\protected@file@percent }
\@writefile{toc}{\contentsline {subsubsection}{\numberline {4.5.1}Implementazione tecnologica}{12}{subsubsection.4.5.1}\protected@file@percent }
\@writefile{toc}{\contentsline {subsection}{\numberline {4.6}OSC11 - Genera ordine dallo scontrino}{13}{subsection.4.6}\protected@file@percent }
\@writefile{toc}{\contentsline {subsubsection}{\numberline {4.6.1}Implementazione tecnologica}{13}{subsubsection.4.6.1}\protected@file@percent }
\@writefile{toc}{\contentsline {subsection}{\numberline {4.7}OSC14 - Evidenza di disponibilità/indisponibilità di un prodotto/menu per la selezione}{14}{subsection.4.7}\protected@file@percent }
\@writefile{toc}{\contentsline {subsubsection}{\numberline {4.7.1}Implementazione tecnologica}{14}{subsubsection.4.7.1}\protected@file@percent }
\bibstyle{IEEEtran}
\bibdata{references.bib}
\@writefile{toc}{\contentsline {section}{\numberline {5}Conclusioni e possibili sviluppi}{15}{section.5}\protected@file@percent }
\@writefile{toc}{\contentsline {subsection}{\numberline {5.1}Possibili Sviluppi}{15}{subsection.5.1}\protected@file@percent }
